{
  "algorithm_version": 2,
  "end_time": "Sun, 14 Feb 2021 16:15:32 GMT",
  "grade": "F",
  "hidden": false,
  "likelihood_indicator": "MEDIUM",
  "response_headers": {
    "Connection": "Keep-Alive",
    "Content-Type": "text/html;charset=UTF-8",
    "Date": "Sun, 14 Feb 2021 16:15:11 GMT",
    "Keep-Alive": "timeout=5, max=100",
    "Set-Cookie": "JSESSIONID=661BD878AD20338B29BCC97737C0BF5D; Path=/; HttpOnly, BIGipServer~sic~bocyl.jcyl.es_80=85280729.20480.0000; path=/; Httponly",
    "Transfer-Encoding": "chunked",
    "Vary": "Accept-Encoding"
  },
  "scan_id": 17754946,
  "score": 0,
  "start_time": "Sun, 14 Feb 2021 16:14:22 GMT",
  "state": "FINISHED",
  "status_code": 200,
  "tests_failed": 7,
  "tests_passed": 5,
  "tests_quantity": 12
}