{
  "algorithm_version": 2,
  "end_time": "Sun, 14 Feb 2021 16:16:01 GMT",
  "grade": "F",
  "hidden": false,
  "likelihood_indicator": "MEDIUM",
  "response_headers": {
    "Cache-Control": "no-store, no-cache, must-revalidate",
    "Che": "02",
    "Connection": "Keep-Alive",
    "Content-Type": "text/html; charset=UTF-8",
    "Content-security-policy": "none",
    "Date": "Sun, 14 Feb 2021 16:12:35 GMT",
    "Expires": "Thu, 19 Nov 1981 08:52:00 GMT",
    "Keep-Alive": "timeout=180, max=999",
    "Link": "<https://portal.edu.gva.es/portal/wp-json/>; rel=\"https://api.w.org/\", <https://portal.edu.gva.es/portal/>; rel=shortlink",
    "Pragma": "no-cache",
    "Referrer-Policy": "no-referrer-when-downgrade",
    "Set-Cookie": "BIGipServerP_MAC_PROD_portaledu_2=2072387500.20480.0000; path=/; Httponly; Secure",
    "Transfer-Encoding": "chunked",
    "Vary": "Accept-Encoding",
    "X-TEC-API-ORIGIN": "https://portal.edu.gva.es/portal",
    "X-TEC-API-ROOT": "https://portal.edu.gva.es/portal/wp-json/tribe/events/v1/",
    "X-TEC-API-VERSION": "v1",
    "X-UA-Compatible": "IE=edge",
    "X-XSS-Protection": "1; mode=block"
  },
  "scan_id": 17754959,
  "score": 0,
  "start_time": "Sun, 14 Feb 2021 16:14:22 GMT",
  "state": "FINISHED",
  "status_code": 200,
  "tests_failed": 6,
  "tests_passed": 6,
  "tests_quantity": 12
}