{
  "algorithm_version": 2,
  "end_time": "Sun, 14 Feb 2021 16:15:25 GMT",
  "grade": "F",
  "hidden": false,
  "likelihood_indicator": "MEDIUM",
  "response_headers": {
    "Accept-Ranges": "bytes",
    "Connection": "Keep-Alive",
    "Content-Encoding": "gzip",
    "Content-Length": "919",
    "Content-Type": "text/html",
    "Date": "Sun, 14 Feb 2021 16:15:24 GMT",
    "ETag": "\"9a6-588da58f7c3f4-gzip\"",
    "Keep-Alive": "timeout=3, max=500",
    "Last-Modified": "Tue, 14 May 2019 15:04:20 GMT",
    "Server": "Apache",
    "Vary": "Accept-Encoding"
  },
  "scan_id": 17754983,
  "score": 0,
  "start_time": "Sun, 14 Feb 2021 16:14:28 GMT",
  "state": "FINISHED",
  "status_code": 200,
  "tests_failed": 6,
  "tests_passed": 6,
  "tests_quantity": 12
}