{
  "algorithm_version": 2,
  "end_time": "Mon, 15 Feb 2021 13:59:01 GMT",
  "grade": "F",
  "hidden": false,
  "likelihood_indicator": "MEDIUM",
  "response_headers": {
    "Cache-Control": "private",
    "Content-Encoding": "gzip",
    "Content-Length": "242",
    "Content-Type": "text/html",
    "Date": "Mon, 15 Feb 2021 13:50:53 GMT",
    "Server": "Microsoft-IIS/7.5",
    "Set-Cookie": "ASPSESSIONIDSCQADTBS=FHJEKAJAFHKEOPBKOPIGKBKB; path=/",
    "Vary": "Accept-Encoding",
    "X-Powered-By": "ASP.NET"
  },
  "scan_id": 17768292,
  "score": 0,
  "start_time": "Mon, 15 Feb 2021 13:58:51 GMT",
  "state": "FINISHED",
  "status_code": 200,
  "tests_failed": 7,
  "tests_passed": 5,
  "tests_quantity": 12
}