{
  "algorithm_version": 2,
  "end_time": "Sun, 14 Feb 2021 16:15:34 GMT",
  "grade": "F",
  "hidden": false,
  "likelihood_indicator": "MEDIUM",
  "response_headers": {
    "Connection": "close",
    "Content-Length": "315",
    "Content-Type": "text/html; charset=us-ascii",
    "Date": "Sun, 14 Feb 2021 16:16:00 GMT",
    "Server": "Microsoft-HTTPAPI/2.0"
  },
  "scan_id": 17754965,
  "score": 0,
  "start_time": "Sun, 14 Feb 2021 16:14:23 GMT",
  "state": "FINISHED",
  "status_code": 404,
  "tests_failed": 6,
  "tests_passed": 6,
  "tests_quantity": 12
}