{
  "algorithm_version": 2,
  "end_time": "Sun, 14 Feb 2021 16:15:41 GMT",
  "grade": "F",
  "hidden": false,
  "likelihood_indicator": "MEDIUM",
  "response_headers": {
    "Connection": "Upgrade, Keep-Alive",
    "Content-Encoding": "gzip",
    "Content-Length": "21378",
    "Content-Type": "text/html; charset=UTF-8",
    "Date": "Sun, 14 Feb 2021 16:15:27 GMT",
    "Keep-Alive": "timeout=5, max=3",
    "Link": "<https://www.girones.cat/wp-json/>; rel=\"https://api.w.org/\", <https://www.girones.cat/wp-json/wp/v2/pages/5>; rel=\"alternate\"; type=\"application/json\", <https://www.girones.cat/>; rel=shortlink",
    "Server": "Apache",
    "Upgrade": "h2",
    "Vary": "Accept-Encoding"
  },
  "scan_id": 17754979,
  "score": 15,
  "start_time": "Sun, 14 Feb 2021 16:14:27 GMT",
  "state": "FINISHED",
  "status_code": 200,
  "tests_failed": 6,
  "tests_passed": 6,
  "tests_quantity": 12
}