{
  "algorithm_version": 2,
  "end_time": "Sun, 14 Feb 2021 16:15:26 GMT",
  "grade": "F",
  "hidden": false,
  "likelihood_indicator": "MEDIUM",
  "response_headers": {
    "Accept-Ranges": "bytes",
    "Content-Length": "689",
    "Content-Type": "text/html",
    "Date": "Sun, 14 Feb 2021 16:15:24 GMT",
    "ETag": "\"269c547f2947ca1:0\"",
    "Last-Modified": "Wed, 07 Oct 2009 08:38:08 GMT",
    "Server": "Microsoft-IIS/7.0",
    "X-Powered-By": "ASP.NET"
  },
  "scan_id": 17754973,
  "score": 0,
  "start_time": "Sun, 14 Feb 2021 16:14:27 GMT",
  "state": "FINISHED",
  "status_code": 200,
  "tests_failed": 6,
  "tests_passed": 6,
  "tests_quantity": 12
}