{
  "algorithm_version": 2,
  "end_time": "Sun, 14 Feb 2021 16:15:36 GMT",
  "grade": "F",
  "hidden": false,
  "likelihood_indicator": "MEDIUM",
  "response_headers": {
    "Cache-Control": "max-age=172800",
    "Connection": "Keep-Alive",
    "Content-Encoding": "gzip",
    "Content-Type": "text/html; charset=windows-1252",
    "Date": "Sun, 14 Feb 2021 16:15:25 GMT",
    "Expires": "Tue, 16 Feb 2021 16:15:25 GMT",
    "Keep-Alive": "timeout=5, max=99",
    "Server": "Apache",
    "Transfer-Encoding": "chunked",
    "Vary": "Accept-Encoding",
    "X-Powered-By": "PHP/5.2.17"
  },
  "scan_id": 17754975,
  "score": 0,
  "start_time": "Sun, 14 Feb 2021 16:14:27 GMT",
  "state": "FINISHED",
  "status_code": 200,
  "tests_failed": 7,
  "tests_passed": 5,
  "tests_quantity": 12
}